Propensity Score Exploration
…
ecls_short <- ecls_short %>% drop_na() %>% mutate(pr_score = m_ps$fitted.values)

#alternative 
p_load(broom)
augment(m_ps, ecls_short %>%drop_na())

## # A tibble: 9,267 x 14
##    catholic c5r2mtsc_std race_white p5hmage w3income p5numpla w3momed_hsb
##       <dbl>        <dbl>      <dbl>   <dbl>    <dbl>    <dbl>       <dbl>
##  1        0       0.982           1      47   62500.        1           0
##  2        0       0.594           1      41   45000.        1           0
##  3        0       0.491           1      43   62500.        1           0
##  4        1       1.45            1      38   87500.        1           0
##  5        0       2.60            1      47  150000.        1           0
##  6        0       0.655           1      30    7500.        1           0
##  7        0       0.385           1      41   62500.        1           0
##  8        0      -0.508           0      38    7500.        1           1
##  9        0       0.0307          1      28   17500.        1           1
## 10        0      -1.07            1      31   32500.        1           1
## #  with 9,257 more rows, and 7 more variables: pr_score <dbl>, .fitted <dbl>,
## #   .resid <dbl>, .std.resid <dbl>, .hat <dbl>, .sigma <dbl>, .cooksd <dbl>
…
